%YAML 1.1
%TAG !u! tag:unity3d.com,2011:
--- !u!114 &1001050380711311550
MonoBehaviour:
  m_ObjectHideFlags: 0
  m_CorrespondingSourceObject: {fileID: 0}
  m_PrefabInstance: {fileID: 0}
  m_PrefabAsset: {fileID: 0}
  m_GameObject: {fileID: 585840222553745221}
  m_Enabled: 1
  m_EditorHideFlags: 0
  m_Script: {fileID: 11500000, guid: fbc99a04a188460498bb6393b07becae, type: 3}
  m_Name: 
  m_EditorClassIdentifier: 
  multiplier: 1
--- !u!1001 &6616831431552114957
PrefabInstance:
  m_ObjectHideFlags: 0
  serializedVersion: 2
  m_Modification:
    m_TransformParent: {fileID: 0}
    m_Modifications:
    - target: {fileID: 6049152014896465480, guid: 42d598376e3a68342a72416ea94df30b,
        type: 3}
      propertyPath: m_Name
      value: Boomerang 3 Variant
      objectReference: {fileID: 0}
    - target: {fileID: 2781159685108445920, guid: 42d598376e3a68342a72416ea94df30b,
        type: 3}
      propertyPath: m_LocalPosition.x
      value: 0
      objectReference: {fileID: 0}
    - target: {fileID: 2781159685108445920, guid: 42d598376e3a68342a72416ea94df30b,
        type: 3}
      propertyPath: m_LocalPosition.y
      value: 0
      objectReference: {fileID: 0}
    - target: {fileID: 2781159685108445920, guid: 42d598376e3a68342a72416ea94df30b,
        type: 3}
      propertyPath: m_LocalPosition.z
      value: 0
      objectReference: {fileID: 0}
    - target: {fileID: 2781159685108445920, guid: 42d598376e3a68342a72416ea94df30b,
        type: 3}
      propertyPath: m_LocalRotation.x
      value: 0
      objectReference: {fileID: 0}
    - target: {fileID: 2781159685108445920, guid: 42d598376e3a68342a72416ea94df30b,
        type: 3}
      propertyPath: m_LocalRotation.y
      value: 0
      objectReference: {fileID: 0}
    - target: {fileID: 2781159685108445920, guid: 42d598376e3a68342a72416ea94df30b,
        type: 3}
      propertyPath: m_LocalRotation.z
      value: 0
      objectReference: {fileID: 0}
    - target: {fileID: 2781159685108445920, guid: 42d598376e3a68342a72416ea94df30b,
        type: 3}
      propertyPath: m_LocalRotation.w
      value: 1
      objectReference: {fileID: 0}
    - target: {fileID: 2781159685108445920, guid: 42d598376e3a68342a72416ea94df30b,
        type: 3}
      propertyPath: m_RootOrder
      value: 0
      objectReference: {fileID: 0}
    - target: {fileID: 2781159685108445920, guid: 42d598376e3a68342a72416ea94df30b,
        type: 3}
      propertyPath: m_LocalEulerAnglesHint.x
      value: 0
      objectReference: {fileID: 0}
    - target: {fileID: 2781159685108445920, guid: 42d598376e3a68342a72416ea94df30b,
        type: 3}
      propertyPath: m_LocalEulerAnglesHint.y
      value: 0
      objectReference: {fileID: 0}
    - target: {fileID: 2781159685108445920, guid: 42d598376e3a68342a72416ea94df30b,
        type: 3}
      propertyPath: m_LocalEulerAnglesHint.z
      value: 0
      objectReference: {fileID: 0}
    m_RemovedComponents:
    - {fileID: 7782479190008193406, guid: 42d598376e3a68342a72416ea94df30b, type: 3}
    - {fileID: 2420380595776588989, guid: 42d598376e3a68342a72416ea94df30b, type: 3}
    - {fileID: 4213822570233167769, guid: 42d598376e3a68342a72416ea94df30b, type: 3}
  m_SourcePrefab: {fileID: 100100000, guid: 42d598376e3a68342a72416ea94df30b, type: 3}
--- !u!1 &585840222553745221 stripped
GameObject:
  m_CorrespondingSourceObject: {fileID: 6049152014896465480, guid: 42d598376e3a68342a72416ea94df30b,
    type: 3}
  m_PrefabInstance: {fileID: 6616831431552114957}
  m_PrefabAsset: {fileID: 0}
